උණුසුම් විසිත්ත කාමරය පුරා තවත් නිහැඩියාවක් පැතිර ගියේය
නමුත් මෙය එතරම් සතුටුදායක පැහැදිලි කිරීමක් නොවුයේ, මේ නිසා වෙනත් ප්‍රශ්න පැන නැගුණු බැවිනි
දෑසට කදුළු නැගුණ ඔහු සිතුවිලිවලට ඉබාගාතේ යාමට ඉඩ හළේය
මම මල්ලි සමග පාසලට යනවිට මහා වැස්සක් කඩා හැලුනේය
අන්ත දුක්ඛිත මිනිසා දහසක් දුක් ගැහැට විද විදියේ මිය ඇදුණේය
සියලු ලෝකවාසීහු ලෝක යුද්ධය හේතුවෙන් අසරණ භාවයට පත් වුහ
නිසි අවධානයක් නොමැති කළ, මනස පිටුපසින් කෙලෙස් අධිවේගයකින් ඇදී අවුත් මුළු මනස ම දැඩි ව වෙළා ගනී
විභාගය අසමත් වූ නිසා ඇයට නැවත මුදල් ගෙවා විභාගය කිරිර්මට සිදු විය.
විනෝද චාරිකාවක් යමින් සිටියදී බස් රථය ලොරියක ගැටුණි.
රූමස්සල ඝාතනය සම්බන්ධයෙන් සිටි සැකකරුවන් සියලු දෙනා හට මරණිය දණ්ඩන නියම වුණි.